{
   "attachments" : [
      {
         "description" : "",
         "id" : 29069,
         "isDefault" : true,
         "projectId" : 238222,
         "status" : 1,
         "thumbnailUrl" : "https://media.forgecdn.net/avatars/thumbnails/29/69/256/256/635838945588716414.jpeg",
         "title" : "635838945588716414.jpeg",
         "url" : "https://media.forgecdn.net/avatars/29/69/635838945588716414.jpeg"
      },
      {
         "description" : "",
         "id" : 31417,
         "isDefault" : false,
         "projectId" : 238222,
         "status" : 1,
         "thumbnailUrl" : "https://media.forgecdn.net/attachments/thumbnails/31/417/310/172/thzzdin.png",
         "title" : "Recipe Completion",
         "url" : "https://media.forgecdn.net/attachments/31/417/thzzdin.png"
      },
      {
         "description" : "",
         "id" : 31419,
         "isDefault" : false,
         "projectId" : 238222,
         "status" : 1,
         "thumbnailUrl" : "https://media.forgecdn.net/attachments/thumbnails/31/419/310/172/t7f7jh6.png",
         "title" : "Potions",
         "url" : "https://media.forgecdn.net/attachments/31/419/t7f7jh6.png"
      },
      {
         "description" : "",
         "id" : 31420,
         "isDefault" : false,
         "projectId" : 238222,
         "status" : 1,
         "thumbnailUrl" : "https://media.forgecdn.net/attachments/thumbnails/31/420/310/172/tgafkma.png",
         "title" : "Itemlist Edit Mode",
         "url" : "https://media.forgecdn.net/attachments/31/420/tgafkma.png"
      },
      {
         "description" : "",
         "id" : 31418,
         "isDefault" : false,
         "projectId" : 238222,
         "status" : 1,
         "thumbnailUrl" : "https://media.forgecdn.net/attachments/thumbnails/31/418/310/172/9lngh5f.png",
         "title" : "Big Screen Support",
         "url" : "https://media.forgecdn.net/attachments/31/418/9lngh5f.png"
      }
   ],
   "authors" : [
      {
         "id" : 32358,
         "name" : "mezz",
         "projectId" : 238222,
         "projectTitleId" : null,
         "projectTitleTitle" : null,
         "twitchId" : 56761389,
         "url" : "https://www.curseforge.com/members/17072262-mezz?username=mezz",
         "userId" : 17072262
      }
   ],
   "categories" : [
      {
         "avatarId" : 6036,
         "avatarUrl" : "https://media.forgecdn.net/avatars/6/36/635351496947765531.png",
         "categoryId" : 421,
         "gameId" : 432,
         "name" : "API and Library",
         "parentId" : 6,
         "projectId" : 238222,
         "rootId" : 6,
         "url" : "https://www.curseforge.com/minecraft/mc-mods/library-api"
      },
      {
         "avatarId" : 6038,
         "avatarUrl" : "https://media.forgecdn.net/avatars/6/38/635351497437388438.png",
         "categoryId" : 423,
         "gameId" : 432,
         "name" : "Map and Information",
         "parentId" : 6,
         "projectId" : 238222,
         "rootId" : 6,
         "url" : "https://www.curseforge.com/minecraft/mc-mods/map-information"
      }
   ],
   "categorySection" : {
      "extraIncludePattern" : null,
      "gameCategoryId" : 6,
      "gameId" : 432,
      "id" : 8,
      "initialInclusionPattern" : ".",
      "name" : "Mods",
      "packageType" : 6,
      "path" : "mods"
   },
   "dateCreated" : "2015-11-23T22:55:58.84Z",
   "dateModified" : "2020-08-10T18:40:22.783Z",
   "dateReleased" : "2020-08-10T18:38:29.933Z",
   "defaultFileId" : 2988828,
   "downloadCount" : 78840716,
   "gameId" : 432,
   "gameName" : "Minecraft",
   "gamePopularityRank" : 1,
   "gameSlug" : "minecraft",
   "gameVersionLatestFiles" : [
      {
         "fileType" : 3,
         "gameVersion" : "1.16.1",
         "gameVersionFlavor" : null,
         "projectFileId" : 3028697,
         "projectFileName" : "jei-1.16.1-7.0.1.10.jar"
      },
      {
         "fileType" : 2,
         "gameVersion" : "1.12.2",
         "gameVersionFlavor" : null,
         "projectFileId" : 2995897,
         "projectFileName" : "jei_1.12.2-4.15.0.297.jar"
      },
      {
         "fileType" : 1,
         "gameVersion" : "1.12.2",
         "gameVersionFlavor" : null,
         "projectFileId" : 2988828,
         "projectFileName" : "jei_1.12.2-4.15.0.296.jar"
      },
      {
         "fileType" : 3,
         "gameVersion" : "1.15.2",
         "gameVersionFlavor" : null,
         "projectFileId" : 2988823,
         "projectFileName" : "jei-1.15.2-6.0.2.12.jar"
      },
      {
         "fileType" : 3,
         "gameVersion" : "1.14.4",
         "gameVersionFlavor" : null,
         "projectFileId" : 2985527,
         "projectFileName" : "jei-1.14.4-6.0.0.29.jar"
      },
      {
         "fileType" : 3,
         "gameVersion" : "1.15.1",
         "gameVersionFlavor" : null,
         "projectFileId" : 2855456,
         "projectFileName" : "jei-1.15.1-6.0.0.1.jar"
      },
      {
         "fileType" : 3,
         "gameVersion" : "1.13.2",
         "gameVersionFlavor" : null,
         "projectFileId" : 2822847,
         "projectFileName" : "jei-1.13.2-5.0.0.30.jar"
      },
      {
         "fileType" : 3,
         "gameVersion" : "1.14.3",
         "gameVersionFlavor" : null,
         "projectFileId" : 2738328,
         "projectFileName" : "jei-1.14.3-6.0.0.8.jar"
      },
      {
         "fileType" : 3,
         "gameVersion" : "1.14.2",
         "gameVersionFlavor" : null,
         "projectFileId" : 2733474,
         "projectFileName" : "jei-1.14.2-6.0.0.3.jar"
      },
      {
         "fileType" : 2,
         "gameVersion" : "1.10.2",
         "gameVersionFlavor" : null,
         "projectFileId" : 2561516,
         "projectFileName" : "jei_1.10.2-3.14.8.422.jar"
      },
      {
         "fileType" : 2,
         "gameVersion" : "1.12",
         "gameVersionFlavor" : null,
         "projectFileId" : 2485363,
         "projectFileName" : "jei_1.12.2-4.7.11.102.jar"
      },
      {
         "fileType" : 2,
         "gameVersion" : "1.12.1",
         "gameVersionFlavor" : null,
         "projectFileId" : 2485363,
         "projectFileName" : "jei_1.12.2-4.7.11.102.jar"
      },
      {
         "fileType" : 1,
         "gameVersion" : "1.12",
         "gameVersionFlavor" : null,
         "projectFileId" : 2478647,
         "projectFileName" : "jei_1.12.1-4.7.8.95.jar"
      },
      {
         "fileType" : 1,
         "gameVersion" : "1.12.1",
         "gameVersionFlavor" : null,
         "projectFileId" : 2478647,
         "projectFileName" : "jei_1.12.1-4.7.8.95.jar"
      },
      {
         "fileType" : 2,
         "gameVersion" : "1.11.2",
         "gameVersionFlavor" : null,
         "projectFileId" : 2461378,
         "projectFileName" : "jei_1.11.2-4.5.1.296.jar"
      },
      {
         "fileType" : 1,
         "gameVersion" : "1.11.2",
         "gameVersionFlavor" : null,
         "projectFileId" : 2453428,
         "projectFileName" : "jei_1.11.2-4.5.0.294.jar"
      },
      {
         "fileType" : 3,
         "gameVersion" : "1.12",
         "gameVersionFlavor" : null,
         "projectFileId" : 2442204,
         "projectFileName" : "jei_1.12-4.7.0.68.jar"
      },
      {
         "fileType" : 1,
         "gameVersion" : "1.8.9",
         "gameVersionFlavor" : null,
         "projectFileId" : 2431977,
         "projectFileName" : "jei_1.8.9-2.28.18.187.jar"
      },
      {
         "fileType" : 1,
         "gameVersion" : "1.10.2",
         "gameVersionFlavor" : null,
         "projectFileId" : 2428966,
         "projectFileName" : "jei_1.10.2-3.14.7.420.jar"
      },
      {
         "fileType" : 2,
         "gameVersion" : "1.11",
         "gameVersionFlavor" : null,
         "projectFileId" : 2360492,
         "projectFileName" : "jei_1.11-4.1.1.208.jar"
      },
      {
         "fileType" : 3,
         "gameVersion" : "1.11",
         "gameVersionFlavor" : null,
         "projectFileId" : 2350616,
         "projectFileName" : "jei_1.11-4.0.4.199.jar"
      },
      {
         "fileType" : 1,
         "gameVersion" : "1.9.4",
         "gameVersionFlavor" : null,
         "projectFileId" : 2313650,
         "projectFileName" : "jei_1.9.4-3.6.8.225.jar"
      },
      {
         "fileType" : 1,
         "gameVersion" : "1.10",
         "gameVersionFlavor" : null,
         "projectFileId" : 2310912,
         "projectFileName" : "jei_1.10-3.7.1.219.jar"
      },
      {
         "fileType" : 2,
         "gameVersion" : "1.9.4",
         "gameVersionFlavor" : null,
         "projectFileId" : 2306298,
         "projectFileName" : "jei_1.9.4-3.6.2.211.jar"
      },
      {
         "fileType" : 2,
         "gameVersion" : "1.9",
         "gameVersionFlavor" : null,
         "projectFileId" : 2305823,
         "projectFileName" : "jei_1.9.4-3.4.4.208.jar"
      },
      {
         "fileType" : 1,
         "gameVersion" : "1.9",
         "gameVersionFlavor" : null,
         "projectFileId" : 2304545,
         "projectFileName" : "jei_1.9.4-3.4.3.207.jar"
      },
      {
         "fileType" : 2,
         "gameVersion" : "1.8.9",
         "gameVersionFlavor" : null,
         "projectFileId" : 2292565,
         "projectFileName" : "jei_1.8.9-2.28.14.182.jar"
      },
      {
         "fileType" : 1,
         "gameVersion" : "1.8.8",
         "gameVersionFlavor" : null,
         "projectFileId" : 2275072,
         "projectFileName" : "jei_1.8.9-2.16.2.78.jar"
      },
      {
         "fileType" : 1,
         "gameVersion" : "1.8",
         "gameVersionFlavor" : null,
         "projectFileId" : 2273901,
         "projectFileName" : "jei_1.8-2.14.0.139.jar"
      },
      {
         "fileType" : 2,
         "gameVersion" : "1.8.8",
         "gameVersionFlavor" : null,
         "projectFileId" : 2270928,
         "projectFileName" : "jei_1.8.8-2.8.3.39.jar"
      },
      {
         "fileType" : 2,
         "gameVersion" : "1.8",
         "gameVersionFlavor" : null,
         "projectFileId" : 2270927,
         "projectFileName" : "jei_1.8-1.8.3.96.jar"
      }
   ],
   "id" : 238222,
   "isAvailable" : true,
   "isExperiemental" : false,
   "isFeatured" : false,
   "latestFiles" : [
      {
         "alternateFileId" : 0,
         "categorySectionPackageType" : 6,
         "changelog" : null,
         "dependencies" : [],
         "displayName" : "jei_1.12.2-4.15.0.296.jar",
         "downloadUrl" : "https://edge.forgecdn.net/files/2988/828/jei_1.12.2-4.15.0.296.jar",
         "exposeAsAlternative" : null,
         "fileDate" : "2020-06-25T23:02:35.42Z",
         "fileLegacyMappingId" : null,
         "fileLength" : 653115,
         "fileName" : "jei_1.12.2-4.15.0.296.jar",
         "fileStatus" : 4,
         "fileTypeId" : null,
         "gameId" : 432,
         "gameVersion" : [
            "1.12.2"
         ],
         "gameVersionDateReleased" : "2008-03-01T06:00:00Z",
         "gameVersionFlavor" : null,
         "gameVersionId" : 4458,
         "gameVersionMappingId" : 2287526,
         "hasInstallScript" : false,
         "id" : 2988828,
         "installMetadata" : null,
         "isAlternate" : false,
         "isAvailable" : true,
         "isCompatibleWithClient" : false,
         "isServerPack" : false,
         "modules" : [
            {
               "fingerprint" : 563183461,
               "foldername" : "META-INF",
               "type" : 3
            },
            {
               "fingerprint" : 4148417974,
               "foldername" : "mezz",
               "type" : 3
            },
            {
               "fingerprint" : 1488642189,
               "foldername" : "pack.mcmeta",
               "type" : 3
            },
            {
               "fingerprint" : 1738225156,
               "foldername" : "mcmod.info",
               "type" : 3
            },
            {
               "fingerprint" : 3724754525,
               "foldername" : "assets",
               "type" : 3
            }
         ],
         "packageFingerprint" : 2316325014,
         "packageFingerprintId" : 478261453,
         "parentFileLegacyMappingId" : null,
         "parentProjectFileId" : null,
         "projectId" : 238222,
         "projectStatus" : 4,
         "releaseType" : 1,
         "renderCacheId" : 1903471,
         "restrictProjectFileAccess" : 1,
         "serverPackFileId" : null,
         "sortableGameVersion" : [
            {
               "gameVersion" : "1.12.2",
               "gameVersionName" : "1.12.2",
               "gameVersionPadded" : "0000000001.0000000012.0000000002",
               "gameVersionReleaseDate" : "2017-09-18T05:00:00Z"
            }
         ]
      },
      {
         "alternateFileId" : 0,
         "categorySectionPackageType" : 6,
         "changelog" : null,
         "dependencies" : [],
         "displayName" : "jei_1.12.2-4.15.0.297.jar",
         "downloadUrl" : "https://edge.forgecdn.net/files/2995/897/jei_1.12.2-4.15.0.297.jar",
         "exposeAsAlternative" : null,
         "fileDate" : "2020-07-03T22:57:33.617Z",
         "fileLegacyMappingId" : null,
         "fileLength" : 653150,
         "fileName" : "jei_1.12.2-4.15.0.297.jar",
         "fileStatus" : 4,
         "fileTypeId" : null,
         "gameId" : 432,
         "gameVersion" : [
            "1.12.2"
         ],
         "gameVersionDateReleased" : "2008-03-01T06:00:00Z",
         "gameVersionFlavor" : null,
         "gameVersionId" : 4458,
         "gameVersionMappingId" : 2303100,
         "hasInstallScript" : false,
         "id" : 2995897,
         "installMetadata" : null,
         "isAlternate" : false,
         "isAvailable" : true,
         "isCompatibleWithClient" : false,
         "isServerPack" : false,
         "modules" : [
            {
               "fingerprint" : 2798081484,
               "foldername" : "META-INF",
               "type" : 3
            },
            {
               "fingerprint" : 1611185798,
               "foldername" : "mezz",
               "type" : 3
            },
            {
               "fingerprint" : 1488642189,
               "foldername" : "pack.mcmeta",
               "type" : 3
            },
            {
               "fingerprint" : 1587347909,
               "foldername" : "mcmod.info",
               "type" : 3
            },
            {
               "fingerprint" : 9943101,
               "foldername" : "assets",
               "type" : 3
            }
         ],
         "packageFingerprint" : 3997803797,
         "packageFingerprintId" : 482418630,
         "parentFileLegacyMappingId" : null,
         "parentProjectFileId" : null,
         "projectId" : 238222,
         "projectStatus" : 4,
         "releaseType" : 2,
         "renderCacheId" : 1912036,
         "restrictProjectFileAccess" : 1,
         "serverPackFileId" : null,
         "sortableGameVersion" : [
            {
               "gameVersion" : "1.12.2",
               "gameVersionName" : "1.12.2",
               "gameVersionPadded" : "0000000001.0000000012.0000000002",
               "gameVersionReleaseDate" : "2017-09-18T05:00:00Z"
            }
         ]
      },
      {
         "alternateFileId" : 0,
         "categorySectionPackageType" : 6,
         "changelog" : null,
         "dependencies" : [],
         "displayName" : "jei-1.16.1-7.0.1.10.jar",
         "downloadUrl" : "https://edge.forgecdn.net/files/3028/697/jei-1.16.1-7.0.1.10.jar",
         "exposeAsAlternative" : null,
         "fileDate" : "2020-08-10T18:38:29.933Z",
         "fileLegacyMappingId" : null,
         "fileLength" : 718808,
         "fileName" : "jei-1.16.1-7.0.1.10.jar",
         "fileStatus" : 4,
         "fileTypeId" : null,
         "gameId" : 432,
         "gameVersion" : [
            "1.16.1",
            "Forge"
         ],
         "gameVersionDateReleased" : "2008-03-01T06:00:00Z",
         "gameVersionFlavor" : null,
         "gameVersionId" : 4458,
         "gameVersionMappingId" : 2367933,
         "hasInstallScript" : false,
         "id" : 3028697,
         "installMetadata" : null,
         "isAlternate" : false,
         "isAvailable" : true,
         "isCompatibleWithClient" : false,
         "isServerPack" : false,
         "modules" : [
            {
               "fingerprint" : 2017009106,
               "foldername" : "META-INF",
               "type" : 3
            },
            {
               "fingerprint" : 3720122473,
               "foldername" : "mezz",
               "type" : 3
            },
            {
               "fingerprint" : 3652707984,
               "foldername" : "pack.mcmeta",
               "type" : 3
            },
            {
               "fingerprint" : 2916810694,
               "foldername" : "assets",
               "type" : 3
            }
         ],
         "packageFingerprint" : 2321574851,
         "packageFingerprintId" : 502875847,
         "parentFileLegacyMappingId" : null,
         "parentProjectFileId" : null,
         "projectId" : 238222,
         "projectStatus" : 4,
         "releaseType" : 3,
         "renderCacheId" : 1952785,
         "restrictProjectFileAccess" : 1,
         "serverPackFileId" : null,
         "sortableGameVersion" : [
            {
               "gameVersion" : "1.16.1",
               "gameVersionName" : "1.16.1",
               "gameVersionPadded" : "0000000001.0000000016.0000000001",
               "gameVersionReleaseDate" : "2020-06-24T12:41:11.823Z"
            },
            {
               "gameVersion" : "",
               "gameVersionName" : "Forge",
               "gameVersionPadded" : "0",
               "gameVersionReleaseDate" : "2019-08-01T00:00:00Z"
            }
         ]
      }
   ],
   "name" : "Just Enough Items (JEI)",
   "popularityScore" : 80771.234375,
   "portalName" : "www.curseforge.com",
   "primaryCategoryId" : 423,
   "primaryLanguage" : "enUS",
   "slug" : "jei",
   "status" : 4,
   "summary" : "View Items and Recipes",
   "websiteUrl" : "https://www.curseforge.com/minecraft/mc-mods/jei"
}
